David,111111,1000,111111
Michale,222222,200,222223
Pete,333333,300,333334
Ronaldo,444444,400,444445
Messi,555555,500,555556
Vandike,666666,600,666667
Son,777777,700,777778
Hazard,888888,800,888889
Alonso,999999,900,999990
Kante,111112,500,111112
Mount,111113,600,111113
Kepa,111114,600,111114